Projet Analyse de données : Analyse des comportements et des préférences des utilisateurs des smartphones
…
La carte de représentation simultannée montre une correspondance entre les modalités Student,Unemployed et More than 2hours , Employed et 1-2hours, Retired et Less than 1hour.

Les modalités More than 2 hours a une position centrale dans cette carte. Ceci est dû au fait que les personnes,Student et Unemployed confondus,passent plus que deux heures sur le smartphone.

IV)ACM:

1.Choix de nombre d’axes :

AD[,c(27:35)]

## # A tibble: 47 x 9
##    Iphone   Samsung   `Huawei]` Iinfinix  Oppo   Lenovo   Honor   OnePlus  IKU  
##    <chr>    <chr>     <chr>     <chr>     <chr>  <chr>    <chr>   <chr>    <chr>
##  1 Iphone_y Samsung_y Huawei_n  Infinix_n Oppo_n Lenovo_n Honor_n Oneplus~ Iku_n
##  2 Iphone_y Samsung_y Huawei_n  Infinix_y Oppo_n Lenovo_y Honor_n Oneplus~ Iku_n
##  3 Iphone_y Samsung_y Huawei_n  Infinix_n Oppo_n Lenovo_n Honor_n Oneplus~ Iku_n
##  4 Iphone_n Samsung_n Huawei_y  Infinix_n Oppo_y Lenovo_n Honor_n Oneplus~ Iku_n
##  5 Iphone_n Samsung_n Huawei_y  Infinix_n Oppo_n Lenovo_n Honor_n Oneplus~ Iku_n
##  6 Iphone_n Samsung_y Huawei_n  Infinix_y Oppo_y Lenovo_y Honor_y Oneplus~ Iku_n
##  7 Iphone_y Samsung_y Huawei_n  Infinix_n Oppo_n Lenovo_y Honor_y Oneplus~ Iku_n
##  8 Iphone_y Samsung_y Huawei_n  Infinix_n Oppo_y Lenovo_n Honor_n Oneplus~ Iku_n
##  9 Iphone_y Samsung_y Huawei_n  Infinix_y Oppo_y Lenovo_y Honor_y Oneplus~ Iku_y
## 10 Iphone_y Samsung_y Huawei_n  Infinix_n Oppo_n Lenovo_n Honor_n Oneplus~ Iku_n
## # ... with 37 more rows
…
